.8
...........................................
...........................................
....................88.....................
.................88888888..................
...............888888888888................
............888888......888888.............
.........888888............888888..........
......888888..................888888.......
....888888......................888888.....
....888............................888.....
...........................................
......888888888888888888888888888888.......
........88888888888888888888888888.........
...........................................
...........................................
........88..88..88..88..88..88..88.........
........88..88..88..88..88..88..88.........
........88..88..88..88..88..88..88.........
........88..88..88..88..88..88..88.........
........88..88..88..88..88..88..88.........
........88..88..88..88..88..82..88.........
........88..88..88..88..88..88..88.........
........88..88..88..88..88..88..88.........
........88..88..88..88..88..88..88.........
........88..88..88..88..88..88..88.........
........88..88..88..88..88..88..88.........
........88..88..88..88..88..88..88.........
...........................................
...........................................
......888888888888888888888888888888.......
......888888888888888888888888888888.......
...........................................
....8888888888888888888888888888888888.....
....8888888888888888888888888888888888.....
...........................................
...........................................